// Jest Snapshot v1, https://goo.gl/fbAQLP

exports[`it should render converter should render converter 1`] = `
"import {
  IEntityConverter,
  WpEntityConverter,
} from "@punks/backend-entity-manager"
import {
  AppUserCreateDto,
  AppUserDto,
  AppUserListItemDto,
  AppUserUpdateDto,
} from "./appUser.dto"
import { AppUserEntity } from "../../database/core/entities/appUser.entity"

@WpEntityConverter("appUser")
export class AppUserConverter
  implements
    IEntityConverter<
      AppUserEntity,
      AppUserDto,
      AppUserListItemDto,
      AppUserCreateDto,
      AppUserUpdateDto
    >
{
  toListItemDto(entity: AppUserEntity): AppUserListItemDto {
    return {
      ...entity,
    }
  }

  toEntityDto(entity: AppUserEntity): AppUserDto {
    return {
      ...entity,
    }
  }

  createDtoToEntity(input: AppUserCreateDto): Partial<AppUserEntity> {
    return {
      ...input,
    }
  }

  updateDtoToEntity(input: AppUserUpdateDto): Partial<AppUserEntity> {
    return {
      ...input,
    }
  }
}
"
`;
